{
    "database": {
        "user": "ba_compass",
        "password": "ba_compass_pass",
        "host": "compass.resist.guru",
        "database": "compass",
        "port": 5432
    },

    "server": {
        "port": 8558,
        "url": "http://localhost:8558/"
    },

    "secure": {
        "secret": "THIS IS USED TO SIGN AND VERIFY JWT TOKENS, REPLACE IT WITH YOUR OWN SECRET, IT CAN BE ANY STRING2. Version 2.0",
        "expiresIn": 8640000000
    }
}