{
    "database": {
        "user": "postgres",
        "password": "ba_compass_pass",
        "host": "postgres",
        "database": "compass",
        "port": 5432
    },

    "server": {
        "port": 80,
        "url": "https://compass.resist.guru/"
    },

    "secure": {
        "secret": "THIS IS USED TO SIGN AND VERIFY JWT TOKENS, REPLACE IT WITH YOUR OWN SECRET, IT CAN BE ANY STRING. VERSION 2.0",
        "expiresIn": 8640000000
    }
}